{
  "uid" : "ab17fc5a4eb3bca4b216b548c7f9fcbc",
  "name" : "timeline",
  "children" : [ {
    "name" : "DESKTOP-98DVTFG",
    "children" : [ {
      "name" : "ParallelWorker#3",
      "children" : [ {
        "name" : "SignInWithChainedMethods",
        "uid" : "91713eef7602849a",
        "parentUid" : "03e32911a39b35fb9ba4f9952c4dc689",
        "status" : "passed",
        "time" : {
          "start" : 1513190269902,
          "stop" : 1513190284633,
          "duration" : 14731
        },
        "flaky" : false,
        "parameters" : [ ]
      }, {
        "name" : "SignInWithSubclassMethod",
        "uid" : "3242dacc7bd0a489",
        "parentUid" : "03e32911a39b35fb9ba4f9952c4dc689",
        "status" : "passed",
        "time" : {
          "start" : 1513190291411,
          "stop" : 1513190301768,
          "duration" : 10357
        },
        "flaky" : false,
        "parameters" : [ ]
      } ],
      "uid" : "03e32911a39b35fb9ba4f9952c4dc689"
    }, {
      "name" : "ParallelWorker#2",
      "children" : [ {
        "name" : "SignInWithSubclassMethod",
        "uid" : "4ecb76cac88bd492",
        "parentUid" : "d8901071db5f92b63523f3717477c8f7",
        "status" : "passed",
        "time" : {
          "start" : 1513190257285,
          "stop" : 1513190263882,
          "duration" : 6597
        },
        "flaky" : false,
        "parameters" : [ ]
      }, {
        "name" : "SignInWithChainedMethods",
        "uid" : "df597f50f6cb3be6",
        "parentUid" : "d8901071db5f92b63523f3717477c8f7",
        "status" : "passed",
        "time" : {
          "start" : 1513190234471,
          "stop" : 1513190249491,
          "duration" : 15020
        },
        "flaky" : false,
        "parameters" : [ ]
      } ],
      "uid" : "d8901071db5f92b63523f3717477c8f7"
    }, {
      "name" : "ParallelWorker#4",
      "children" : [ {
        "name" : "SignInWithSubclassMethod",
        "uid" : "b25eeb94c9cd0c0a",
        "parentUid" : "309bd520775fd7fe875cdcd55b7b62d5",
        "status" : "passed",
        "time" : {
          "start" : 1513190291979,
          "stop" : 1513190301501,
          "duration" : 9522
        },
        "flaky" : false,
        "parameters" : [ ]
      }, {
        "name" : "SignInWithChainedMethods",
        "uid" : "cf1fca705ed7dee6",
        "parentUid" : "309bd520775fd7fe875cdcd55b7b62d5",
        "status" : "passed",
        "time" : {
          "start" : 1513190272029,
          "stop" : 1513190284903,
          "duration" : 12874
        },
        "flaky" : false,
        "parameters" : [ ]
      } ],
      "uid" : "309bd520775fd7fe875cdcd55b7b62d5"
    }, {
      "name" : "ParallelWorker#1",
      "children" : [ {
        "name" : "SignInWithSubclassMethod",
        "uid" : "38a5e809f614304a",
        "parentUid" : "ecc5549b7afd2b77bd44a107cbc3c74a",
        "status" : "passed",
        "time" : {
          "start" : 1513190253289,
          "stop" : 1513190261584,
          "duration" : 8295
        },
        "flaky" : false,
        "parameters" : [ ]
      }, {
        "name" : "SignInWithChainedMethods",
        "uid" : "5702ff7c0cf95bbb",
        "parentUid" : "ecc5549b7afd2b77bd44a107cbc3c74a",
        "status" : "passed",
        "time" : {
          "start" : 1513190234735,
          "stop" : 1513190246766,
          "duration" : 12031
        },
        "flaky" : false,
        "parameters" : [ ]
      } ],
      "uid" : "ecc5549b7afd2b77bd44a107cbc3c74a"
    } ],
    "uid" : "544758f3ed31068f9861a84500415ad2"
  } ]
}